material Color_004
{
   technique
   {
      pass
      {
         diffuse 0.556862745098039 0.556862745098039 0.556862745098039 1.0
         ambient 0.556862745098039 0.556862745098039 0.556862745098039 1.0
      }
   }
}

material SketchupDefault
{
   technique
   {
      pass
      {
         diffuse 1.0 1.0 1.0
         ambient 1.0 1.0 1.0
      }
   }
}

material SketchupDefault_Back
{
   technique
   {
      pass
      {
         diffuse 0.670588235294118 0.690196078431373 0.8
         ambient 0.670588235294118 0.690196078431373 0.8
      }
   }
}
