// Material genrated by blender2ogre 0.6.0

material Material 
{
    receive_shadows on 

    technique
    {
        pass Material
        {
            ambient 0.3843747079372406 0.3843747079372406 0.3843747079372406 1.0
            diffuse 0.22938489378581117 0.22938489378581117 0.22938489378581117 1.0
            specular 0.016129029914736748 0.016129029914736748 0.016129029914736748 1.0 51.75
            emissive 0.0 0.0 0.0 1.0

            alpha_to_coverage off
            colour_write on
            cull_hardware clockwise
            depth_check on
            depth_func less_equal
            depth_write on
            illumination_stage 
            light_clip_planes off
            light_scissor off
            lighting on
            normalise_normals off
            polygon_mode solid
            scene_blend one zero
            scene_blend_op add
            shading gouraud
            transparent_sorting on

            texture_unit 
            {
                texture monstertex.png
                tex_address_mode wrap
                scale 1.0 1.0
                colour_op modulate
            }
        }
    }
}
